^C:\USERS\ANDREI\DOCUMENTS\VISUAL STUDIO 2010\PROJECTS\TRIAL CONTROL\TRIAL CONTROL\FORM1.RESX|C:\USERS\ANDREI\DOCUMENTS\VISUAL STUDIO 2010\PROJECTS\TRIAL CONTROL\TRIAL CONTROL\PROPERTIES\RESOURCES.RESX
C:\USERS\ANDREI\DOCUMENTS\VISUAL STUDIO 2010\PROJECTS\TRIAL CONTROL\TRIAL CONTROL\OBJ\X86\DEBUG\WINDOWSFORMSAPPLICATION1.FORM1.RESOURCES
C:\USERS\ANDREI\DOCUMENTS\VISUAL STUDIO 2010\PROJECTS\TRIAL CONTROL\TRIAL CONTROL\OBJ\X86\DEBUG\WINDOWSFORMSAPPLICATION1.PROPERTIES.RESOURCES.RESOURCES
