2.17E-01,25.2635
3.05E-01,26.44391
3.78E-01,27.99436
4.56E-01,29.57734
5.39E-01,31.52577
6.38E-01,34.23735
7.43E-01,36.9145
8.41E-01,39.72638
9.53E-01,42.86874
1.044314,46.0157
1.154714,49.25836
1.240183,52.33998
1.307846,54.92548
1.381445,57.37625
1.464542,60.02493
1.525081,62.67874
1.601052,66.02928
1.648534,68.15255
1.717384,70.77113
1.787421,73.48947
1.855082,76.77522
1.921557,79.36098
2.002276,82.94386
2.065189,85.96394
2.143533,89.98084
2.205257,93.50136
2.294285,97.51583
2.361946,100.9016
2.434355,104.0529
2.497268,107.273
2.581549,110.7551
